Introduction to the Tidyverse
…
* is daaaaaamn fast 🏎

---

# Import data

```r
citations_raw <- read_csv('https://raw.githubusercontent.com/oliviergimenez/intro_tidyverse/master/journal.pone.0166570.s001.CSV')
citations_raw
```

```
## # A tibble: 1,599 x 12
##    `Journal identi… `5-year journal… `Year published` Volume Issue Authors
##    <chr>                       <dbl>            <dbl>  <dbl> <chr> <chr>  
##  1 Ecology Letters              16.7             2014     17 12    Morin …
##  2 Ecology Letters              16.7             2014     17 12    Jucker…
##  3 Ecology Letters              16.7             2014     17 12    Calcag…
##  4 Ecology Letters              16.7             2014     17 11    Segre …
##  5 Ecology Letters              16.7             2014     17 11    Kaufma…
##  6 Ecology Letters              16.7             2014     17 10    Nasto …
##  7 Ecology Letters              16.7             2014     17 10    Tschir…
##  8 Ecology Letters              16.7             2014     17 9     Barnec…
##  9 Ecology Letters              16.7             2014     17 9     Pinto-…
## 10 Ecology Letters              16.7             2014     17 9     Clough…
## # … with 1,589 more rows, and 6 more variables: `Collection date` <chr>,
## #   `Publication date` <chr>, `Number of tweets` <dbl>, `Number of
## #   users` <dbl>, `Twitter reach` <dbl>, `Number of Web of Science
## #   citations` <dbl>
```
…
```r
citations_temp <- rename(citations_raw,
       journal = 'Journal identity',
       impactfactor = '5-year journal impact factor',
       pubyear = 'Year published',
       colldate = 'Collection date',
       pubdate = 'Publication date',
       nbtweets = 'Number of tweets',
       woscitations = 'Number of Web of Science citations')
citations_temp
```

```
## # A tibble: 1,599 x 12
##    journal impactfactor pubyear Volume Issue Authors colldate pubdate nbtweets
##    <chr>          <dbl>   <dbl>  <dbl> <chr> <chr>   <chr>    <chr>      <dbl>
##  1 Ecolog…         16.7    2014     17 12    Morin … 2/1/2016 9/16/2…       18
##  2 Ecolog…         16.7    2014     17 12    Jucker… 2/1/2016 10/13/…       15
##  3 Ecolog…         16.7    2014     17 12    Calcag… 2/1/2016 10/21/…        5
##  4 Ecolog…         16.7    2014     17 11    Segre … 2/1/2016 8/28/2…        9
##  5 Ecolog…         16.7    2014     17 11    Kaufma… 2/1/2016 8/28/2…        3
##  6 Ecolog…         16.7    2014     17 10    Nasto … 2/2/2016 7/28/2…       27
##  7 Ecolog…         16.7    2014     17 10    Tschir… 2/2/2016 8/6/20…        6
##  8 Ecolog…         16.7    2014     17 9     Barnec… 2/2/2016 6/17/2…       19
##  9 Ecolog…         16.7    2014     17 9     Pinto-… 2/2/2016 6/12/2…       26
## 10 Ecolog…         16.7    2014     17 9     Clough… 2/2/2016 7/17/2…       44
## # … with 1,589 more rows, and 3 more variables: `Number of users` <dbl>,
## #   `Twitter reach` <dbl>, woscitations <dbl>
```

---

# Create (or modify) columns

```r
citations <- mutate(citations_temp, journal = as.factor(journal))
citations
```

```
## # A tibble: 1,599 x 12
##    journal impactfactor pubyear Volume Issue Authors colldate pubdate nbtweets
##    <fct>          <dbl>   <dbl>  <dbl> <chr> <chr>   <chr>    <chr>      <dbl>
##  1 Ecolog…         16.7    2014     17 12    Morin … 2/1/2016 9/16/2…       18
##  2 Ecolog…         16.7    2014     17 12    Jucker… 2/1/2016 10/13/…       15
##  3 Ecolog…         16.7    2014     17 12    Calcag… 2/1/2016 10/21/…        5
##  4 Ecolog…         16.7    2014     17 11    Segre … 2/1/2016 8/28/2…        9
##  5 Ecolog…         16.7    2014     17 11    Kaufma… 2/1/2016 8/28/2…        3
##  6 Ecolog…         16.7    2014     17 10    Nasto … 2/2/2016 7/28/2…       27
##  7 Ecolog…         16.7    2014     17 10    Tschir… 2/2/2016 8/6/20…        6
##  8 Ecolog…         16.7    2014     17 9     Barnec… 2/2/2016 6/17/2…       19
##  9 Ecolog…         16.7    2014     17 9     Pinto-… 2/2/2016 6/12/2…       26
## 10 Ecolog…         16.7    2014     17 9     Clough… 2/2/2016 7/17/2…       44
## # … with 1,589 more rows, and 3 more variables: `Number of users` <dbl>,
## #   `Twitter reach` <dbl>, woscitations <dbl>
```
…
```r
citations_raw %>%
  rename(journal = 'Journal identity',
       impactfactor = '5-year journal impact factor',
       pubyear = 'Year published',
       colldate = 'Collection date',
       pubdate = 'Publication date',
       nbtweets = 'Number of tweets',
       woscitations = 'Number of Web of Science citations') %>%
  mutate(journal = as.factor(journal))
```

```
## # A tibble: 1,599 x 12
##    journal impactfactor pubyear Volume Issue Authors colldate pubdate nbtweets
##    <fct>          <dbl>   <dbl>  <dbl> <chr> <chr>   <chr>    <chr>      <dbl>
##  1 Ecolog…         16.7    2014     17 12    Morin … 2/1/2016 9/16/2…       18
##  2 Ecolog…         16.7    2014     17 12    Jucker… 2/1/2016 10/13/…       15
##  3 Ecolog…         16.7    2014     17 12    Calcag… 2/1/2016 10/21/…        5
##  4 Ecolog…         16.7    2014     17 11    Segre … 2/1/2016 8/28/2…        9
##  5 Ecolog…         16.7    2014     17 11    Kaufma… 2/1/2016 8/28/2…        3
##  6 Ecolog…         16.7    2014     17 10    Nasto … 2/2/2016 7/28/2…       27
##  7 Ecolog…         16.7    2014     17 10    Tschir… 2/2/2016 8/6/20…        6
##  8 Ecolog…         16.7    2014     17 9     Barnec… 2/2/2016 6/17/2…       19
##  9 Ecolog…         16.7    2014     17 9     Pinto-… 2/2/2016 6/12/2…       26
## 10 Ecolog…         16.7    2014     17 9     Clough… 2/2/2016 7/17/2…       44
## # … with 1,589 more rows, and 3 more variables: `Number of users` <dbl>,
## #   `Twitter reach` <dbl>, woscitations <dbl>
```
…
# Tidy, transform

---

# Select columns

```r
citations %>%
  select(journal, impactfactor, nbtweets)
```

```
## # A tibble: 1,599 x 3
##    journal         impactfactor nbtweets
##    <fct>                  <dbl>    <dbl>
##  1 Ecology Letters         16.7       18
##  2 Ecology Letters         16.7       15
##  3 Ecology Letters         16.7        5
##  4 Ecology Letters         16.7        9
##  5 Ecology Letters         16.7        3
##  6 Ecology Letters         16.7       27
##  7 Ecology Letters         16.7        6
##  8 Ecology Letters         16.7       19
##  9 Ecology Letters         16.7       26
## 10 Ecology Letters         16.7       44
## # … with 1,589 more rows
```

---

# Drop columns

```r
citations %>%
  select(-Volume, -Issue, -Authors)
```

```
## # A tibble: 1,599 x 9
##    journal impactfactor pubyear colldate pubdate nbtweets `Number of user…
##    <fct>          <dbl>   <dbl> <chr>    <chr>      <dbl>            <dbl>
##  1 Ecolog…         16.7    2014 2/1/2016 9/16/2…       18               16
##  2 Ecolog…         16.7    2014 2/1/2016 10/13/…       15               12
##  3 Ecolog…         16.7    2014 2/1/2016 10/21/…        5                4
##  4 Ecolog…         16.7    2014 2/1/2016 8/28/2…        9                8
##  5 Ecolog…         16.7    2014 2/1/2016 8/28/2…        3                3
##  6 Ecolog…         16.7    2014 2/2/2016 7/28/2…       27               23
##  7 Ecolog…         16.7    2014 2/2/2016 8/6/20…        6                6
##  8 Ecolog…         16.7    2014 2/2/2016 6/17/2…       19               18
##  9 Ecolog…         16.7    2014 2/2/2016 6/12/2…       26               23
## 10 Ecolog…         16.7    2014 2/2/2016 7/17/2…       44               42
## # … with 1,589 more rows, and 2 more variables: `Twitter reach` <dbl>,
## #   woscitations <dbl>
```

---

# Split a column in several columns

```r
citations %>%
  separate(pubdate,c('month','day','year'),'/')
```

```
## # A tibble: 1,599 x 14
##    journal impactfactor pubyear Volume Issue Authors colldate month day   year 
##    <fct>          <dbl>   <dbl>  <dbl> <chr> <chr>   <chr>    <chr> <chr> <chr>
##  1 Ecolog…         16.7    2014     17 12    Morin … 2/1/2016 9     16    2014 
##  2 Ecolog…         16.7    2014     17 12    Jucker… 2/1/2016 10    13    2014 
##  3 Ecolog…         16.7    2014     17 12    Calcag… 2/1/2016 10    21    2014 
##  4 Ecolog…         16.7    2014     17 11    Segre … 2/1/2016 8     28    2014 
##  5 Ecolog…         16.7    2014     17 11    Kaufma… 2/1/2016 8     28    2014 
##  6 Ecolog…         16.7    2014     17 10    Nasto … 2/2/2016 7     28    2014 
##  7 Ecolog…         16.7    2014     17 10    Tschir… 2/2/2016 8     6     2014 
##  8 Ecolog…         16.7    2014     17 9     Barnec… 2/2/2016 6     17    2014 
##  9 Ecolog…         16.7    2014     17 9     Pinto-… 2/2/2016 6     12    2014 
## 10 Ecolog…         16.7    2014     17 9     Clough… 2/2/2016 7     17    2014 
## # … with 1,589 more rows, and 4 more variables: nbtweets <dbl>, `Number of
## #   users` <dbl>, `Twitter reach` <dbl>, woscitations <dbl>
```

---

# Transform in Date format...

```r
library(lubridate)
citations %>%
  mutate(pubdate = mdy(pubdate),
         colldate = mdy(colldate))
```

```
## # A tibble: 1,599 x 12
##    journal impactfactor pubyear Volume Issue Authors colldate   pubdate   
##    <fct>          <dbl>   <dbl>  <dbl> <chr> <chr>   <date>     <date>    
##  1 Ecolog…         16.7    2014     17 12    Morin … 2016-02-01 2014-09-16
##  2 Ecolog…         16.7    2014     17 12    Jucker… 2016-02-01 2014-10-13
##  3 Ecolog…         16.7    2014     17 12    Calcag… 2016-02-01 2014-10-21
##  4 Ecolog…         16.7    2014     17 11    Segre … 2016-02-01 2014-08-28
##  5 Ecolog…         16.7    2014     17 11    Kaufma… 2016-02-01 2014-08-28
##  6 Ecolog…         16.7    2014     17 10    Nasto … 2016-02-02 2014-07-28
##  7 Ecolog…         16.7    2014     17 10    Tschir… 2016-02-02 2014-08-06
##  8 Ecolog…         16.7    2014     17 9     Barnec… 2016-02-02 2014-06-17
##  9 Ecolog…         16.7    2014     17 9     Pinto-… 2016-02-02 2014-06-12
## 10 Ecolog…         16.7    2014     17 9     Clough… 2016-02-02 2014-07-17
## # … with 1,589 more rows, and 4 more variables: nbtweets <dbl>, `Number of
## #   users` <dbl>, `Twitter reach` <dbl>, woscitations <dbl>
```

---

# ...for easy manipulation of dates

```r
library(lubridate)
citations %>%
  mutate(pubdate = mdy(pubdate),
         colldate = mdy(colldate),
*        pubyear2 = year(pubdate))
```

```
## # A tibble: 1,599 x 13
##    journal impactfactor pubyear Volume Issue Authors colldate   pubdate   
##    <fct>          <dbl>   <dbl>  <dbl> <chr> <chr>   <date>     <date>    
##  1 Ecolog…         16.7    2014     17 12    Morin … 2016-02-01 2014-09-16
##  2 Ecolog…         16.7    2014     17 12    Jucker… 2016-02-01 2014-10-13
##  3 Ecolog…         16.7    2014     17 12    Calcag… 2016-02-01 2014-10-21
##  4 Ecolog…         16.7    2014     17 11    Segre … 2016-02-01 2014-08-28
##  5 Ecolog…         16.7    2014     17 11    Kaufma… 2016-02-01 2014-08-28
##  6 Ecolog…         16.7    2014     17 10    Nasto … 2016-02-02 2014-07-28
##  7 Ecolog…         16.7    2014     17 10    Tschir… 2016-02-02 2014-08-06
##  8 Ecolog…         16.7    2014     17 9     Barnec… 2016-02-02 2014-06-17
##  9 Ecolog…         16.7    2014     17 9     Pinto-… 2016-02-02 2014-06-12
## 10 Ecolog…         16.7    2014     17 9     Clough… 2016-02-02 2014-07-17
## # … with 1,589 more rows, and 5 more variables: nbtweets <dbl>, `Number of
## #   users` <dbl>, `Twitter reach` <dbl>, woscitations <dbl>, pubyear2 <dbl>
```
…
# Easy character manipulation

---

# Select rows corresponding to papers with more than 3 authors

```r
citations %>%
  filter(str_detect(Authors,'et al'))
```

```
## # A tibble: 1,280 x 12
##    journal impactfactor pubyear Volume Issue Authors colldate pubdate nbtweets
##    <fct>          <dbl>   <dbl>  <dbl> <chr> <chr>   <chr>    <chr>      <dbl>
##  1 Ecolog…         16.7    2014     17 12    Morin … 2/1/2016 9/16/2…       18
##  2 Ecolog…         16.7    2014     17 12    Jucker… 2/1/2016 10/13/…       15
##  3 Ecolog…         16.7    2014     17 12    Calcag… 2/1/2016 10/21/…        5
##  4 Ecolog…         16.7    2014     17 11    Segre … 2/1/2016 8/28/2…        9
##  5 Ecolog…         16.7    2014     17 11    Kaufma… 2/1/2016 8/28/2…        3
##  6 Ecolog…         16.7    2014     17 10    Nasto … 2/2/2016 7/28/2…       27
##  7 Ecolog…         16.7    2014     17 10    Tschir… 2/2/2016 8/6/20…        6
##  8 Ecolog…         16.7    2014     17 9     Barnec… 2/2/2016 6/17/2…       19
##  9 Ecolog…         16.7    2014     17 9     Pinto-… 2/2/2016 6/12/2…       26
## 10 Ecolog…         16.7    2014     17 9     Clough… 2/2/2016 7/17/2…       44
## # … with 1,270 more rows, and 3 more variables: `Number of users` <dbl>,
## #   `Twitter reach` <dbl>, woscitations <dbl>
```

---

# Select rows corresponding to papers with less than 3 authors

```r
citations %>%
  filter(!str_detect(Authors,'et al'))
```

```
## # A tibble: 319 x 12
##    journal impactfactor pubyear Volume Issue Authors colldate pubdate nbtweets
##    <fct>          <dbl>   <dbl>  <dbl> <chr> <chr>   <chr>    <chr>      <dbl>
##  1 Ecolog…         16.7    2014     17 6     Neutle… 2/15/20… 3/17/2…        8
##  2 Ecolog…         16.7    2014     17 5     Kellne… 2/15/20… 2/20/2…       18
##  3 Ecolog…         16.7    2014     17 4     Griffi… 2/15/20… 1/16/2…        4
##  4 Ecolog…         16.7    2014     17 3     Gremer… 2/15/20… 1/17/2…        4
##  5 Ecolog…         16.7    2014     17 2     Cavier… 2/15/20… 10/17/…       16
##  6 Ecolog…         16.7    2014     17 2     Haegma… 2/15/20… 12/5/2…        9
##  7 Ecolog…         16.7    2013     16 12    Kearney 2/15/20… 10/1/2…       13
##  8 Ecolog…         16.7    2013     16 9     Locey … 2/15/20… 7/15/2…       28
##  9 Ecolog…         16.7    2013     16 8     Quinte… 2/15/20… 6/26/2…      120
## 10 Ecolog…         16.7    2013     16 3     Lesser… 2/15/20… 12/22/…        9
## # … with 309 more rows, and 3 more variables: `Number of users` <dbl>, `Twitter
## #   reach` <dbl>, woscitations <dbl>
```

---

# Select rows corresponding to papers with less than 3 authors in journal with IF < 5

```r
citations %>%
  filter(!str_detect(Authors,'et al'), impactfactor < 5)
```

```
## # A tibble: 77 x 12
##    journal impactfactor pubyear Volume Issue Authors colldate pubdate nbtweets
##    <fct>          <dbl>   <dbl>  <dbl> <chr> <chr>   <chr>    <chr>      <dbl>
##  1 Molecu…         4.9     2014     14 6     Gautier 2/27/20… 5/14/2…        2
##  2 Molecu…         4.9     2014     14 5     Gambel… 2/27/20… 3/7/20…        7
##  3 Molecu…         4.9     2014     14 4     Kekkon… 2/27/20… 3/10/2…        4
##  4 Molecu…         4.9     2014     14 3     Bhatta… 2/27/20… 12/8/2…        0
##  5 Molecu…         4.9     2014     14 1     Christ… 2/28/20… 10/25/…        0
##  6 Molecu…         4.9     2013     13 4     Villar… 2/28/20… 5/2/20…        0
##  7 Molecu…         4.9     2013     13 4     Wang    2/28/20… 4/25/2…        0
##  8 Molecu…         4.9     2012     12 1     Joly    2/28/20… 9/7/20…        3
##  9 Animal…         3.21    2014     17 6     Plavsic 2/9/2016 4/17/2…        9
## 10 Animal…         3.21    2014     17 Supp… Knox a… 2/11/20… 11/13/…        1
## # … with 67 more rows, and 3 more variables: `Number of users` <dbl>, `Twitter
## #   reach` <dbl>, woscitations <dbl>
```

---

# Convert words to lowercase

```r
citations %>%
* mutate(authors_lowercase = str_to_lower(Authors)) %>%
  select(authors_lowercase)
```

```
## # A tibble: 1,599 x 1
##    authors_lowercase  
##    <chr>              
##  1 morin et al        
##  2 jucker et al       
##  3 calcagno et al     
##  4 segre et al        
##  5 kaufman et al      
##  6 nasto et al        
##  7 tschirren et al    
##  8 barnechi et al     
##  9 pinto-sanchez et al
## 10 clough et al       
## # … with 1,589 more rows
```
…
---

# Group by variables to calculate stats

```r
citations %>%
  group_by(journal, pubyear) %>%
  summarise(avg_tweets_year = mean(nbtweets))
```

```
## # A tibble: 59 x 3
## # Groups:   journal [20]
##    journal                     pubyear avg_tweets_year
##    <fct>                         <dbl>           <dbl>
##  1 Animal Conservation            2012           3.72 
##  2 Animal Conservation            2013           5.83 
##  3 Animal Conservation            2014          16.6  
##  4 Conservation Letters           2012           6.76 
##  5 Conservation Letters           2013          11.6  
##  6 Conservation Letters           2014          12.2  
##  7 Diversity and Distributions    2012           0.667
##  8 Diversity and Distributions    2013           1    
##  9 Diversity and Distributions    2014           3.97 
## 10 Ecological Applications        2012           0.917
## # … with 49 more rows
```
…
---

# Pick a few journals

```r
citations_ecology <- citations %>%
  mutate(journal = str_to_lower(journal)) %>% # all journals names lowercase
  filter(journal %in%
           c('journal of animal ecology','journal of applied ecology','ecology')) # filter
citations_ecology
```

```
## # A tibble: 216 x 12
##    journal impactfactor pubyear Volume Issue Authors colldate pubdate nbtweets
##    <chr>          <dbl>   <dbl>  <dbl> <chr> <chr>   <chr>    <chr>      <dbl>
##  1 ecology         6.16    2014     95 12    Maglia… 3/19/20… 12/1/2…        1
##  2 ecology         6.16    2014     95 12    Soinen  3/19/20… 12/1/2…        6
##  3 ecology         6.16    2014     95 12    Graham… 3/19/20… 12/1/2…        1
##  4 ecology         6.16    2014     95 11    White … 3/19/20… 11/1/2…        9
##  5 ecology         6.16    2014     95 11    Einars… 3/19/20… 11/1/2…       15
##  6 ecology         6.16    2014     95 11    Haav a… 3/19/20… 11/1/2…        2
##  7 ecology         6.16    2014     95 10    Dodds … 3/19/20… 10/1/2…        1
##  8 ecology         6.16    2014     95 10    Brown … 3/19/20… 10/1/2…        1
##  9 ecology         6.16    2014     95 10    Wright… 3/19/20… 10/1/2…        0
## 10 ecology         6.16    2014     95 9     Ramahl… 3/19/20… 9/1/20…       27
## # … with 206 more rows, and 3 more variables: `Number of users` <dbl>, `Twitter
## #   reach` <dbl>, woscitations <dbl>
```
…
