Exercice n°2
…
---

## Corrigé

```r
sp_list
```

```
## # A tibble: 4,936 x 8
##    species_id class  order   family    genus   species  common      sci_name    
##         <dbl> <chr>  <chr>   <chr>     <chr>   <chr>    <chr>       <chr>       
##  1      15168 Mamma… Artiod… Antiloca… Antilo… america… Pronghorn   Antilocapra…
##  2      15290 Mamma… Artiod… Bovidae   Addax   nasomac… Addax       Addax nasom…
##  3      15169 Mamma… Artiod… Bovidae   Aepyce… melampus Impala      Aepyceros m…
##  4      15170 Mamma… Artiod… Bovidae   Alcela… buselap… Hartebeest  Alcelaphus …
##  5      15176 Mamma… Artiod… Bovidae   Alcela… lichten… Lichtenste… Alcelaphus …
##  6      15177 Mamma… Artiod… Bovidae   Ammodo… clarkei  Dibatag     Ammodorcas …
##  7      15239 Mamma… Artiod… Bovidae   Ammotr… lervia   Aoudad      Ammotragus …
##  8      15178 Mamma… Artiod… Bovidae   Antido… marsupi… Springbok   Antidorcas …
##  9      15179 Mamma… Artiod… Bovidae   Antilo… cervica… Blackbuck   Antilope ce…
## 10      15173 Mamma… Artiod… Bovidae   Beatra… hunteri  Hirola      Beatragus h…
## # … with 4,926 more rows
```

---

## Corrigé

```r
eco_list
```

```
## # A tibble: 798 x 4
##    ecoregion_id ecoregion                   realm    biome                      
##    <chr>        <chr>                       <chr>    <chr>                      
##  1 AA0106       Halmahera rain forests      Austral… Tropical and Subtropical M…
##  2 AA0107       Huon Peninsula montane rai… Austral… Tropical and Subtropical M…
##  3 AA0105       Central Range montane rain… Austral… Tropical and Subtropical M…
##  4 AA0102       Banda Sea Islands moist de… Austral… Tropical and Subtropical M…
##  5 AA0103       Biak-Numfoor rain forests   Austral… Tropical and Subtropical M…
##  6 AA0104       Buru rain forests           Austral… Tropical and Subtropical M…
##  7 AA0118       Seram rain forests          Austral… Tropical and Subtropical M…
##  8 AA0119       Solomon Islands rain fores… Austral… Tropical and Subtropical M…
##  9 AA0120       Southeastern Papuan rain f… Austral… Tropical and Subtropical M…
## 10 AA0121       Southern New Guinea freshw… Austral… Tropical and Subtropical M…
## # … with 788 more rows
```

---

## Corrigé

```r
sp_eco
```

```
## # A tibble: 350,045 x 2
##    ecoregion_id species_id
##    <chr>             <dbl>
##  1 AT0101            17507
##  2 AT0101            17688
##  3 AT0101            17730
##  4 AT0101            17736
##  5 AT0101            17741
##  6 AT0101            17789
##  7 AT0101            17793
##  8 AT0101            17814
##  9 AT0101            17831
## 10 AT0101            17838
## # … with 350,035 more rows
```
…
## Corrigé

```r
## Première jointure
ursus_eco <- ursus %>%
  left_join(sp_eco)
```

```
## Joining, by = "species_id"
```

```
## # A tibble: 389 x 4
##    species_id sci_name               common      ecoregion_id
##         <dbl> <chr>                  <chr>       <chr>       
##  1      14932 Ailuropoda melanoleuca Giant Panda PA0509      
##  2      14932 Ailuropoda melanoleuca Giant Panda PA0102      
##  3      14932 Ailuropoda melanoleuca Giant Panda PA0417      
##  4      14932 Ailuropoda melanoleuca Giant Panda PA0434      
##  5      14932 Ailuropoda melanoleuca Giant Panda PA0518      
##  6      14932 Ailuropoda melanoleuca Giant Panda PA1017      
##  7      14934 Helarctos malayanus    Sun Bear    IM0106      
##  8      14934 Helarctos malayanus    Sun Bear    IM0117      
##  9      14934 Helarctos malayanus    Sun Bear    IM0119      
## 10      14934 Helarctos malayanus    Sun Bear    IM0139      
## # … with 379 more rows
```

---

## Corrigé

```r
## Seconde jointure
ursus_eco <- ursus_eco %>%
  left_join(eco_list, by = "ecoregion_id")
```

```
## # A tibble: 389 x 7
##    species_id sci_name    common  ecoregion_id ecoregion       realm biome      
##         <dbl> <chr>       <chr>   <chr>        <chr>           <chr> <chr>      
##  1      14932 Ailuropoda… Giant … PA0509       Hengduan Mount… Pala… Temperate …
##  2      14932 Ailuropoda… Giant … PA0102       Yunnan Plateau… Pala… Tropical a…
##  3      14932 Ailuropoda… Giant … PA0417       Daba Mountains… Pala… Temperate …
##  4      14932 Ailuropoda… Giant … PA0434       Qin Ling Mount… Pala… Temperate …
##  5      14932 Ailuropoda… Giant … PA0518       Qionglai-Minsh… Pala… Temperate …
##  6      14932 Ailuropoda… Giant … PA1017       Southeast Tibe… Pala… Montane Gr…
##  7      14934 Helarctos … Sun Be… IM0106       Cardamom Mount… Indo… Tropical a…
##  8      14934 Helarctos … Sun Be… IM0117       Irrawaddy mois… Indo… Tropical a…
##  9      14934 Helarctos … Sun Be… IM0119       Kayah-Karen mo… Indo… Tropical a…
## 10      14934 Helarctos … Sun Be… IM0139       Northern Thail… Indo… Tropical a…
## # … with 379 more rows
```
…
