Practical on data visualization
…
---

# Read in data

```r
url       <- "http://esapubs.org/archive/ecol/E090/184/"
filename  <- "PanTHERIA_1-0_WR05_Aug2008.txt"

pantheria <- readr::read_delim(file.path(url, filename), delim = "\t")
```

```
## # A tibble: 5,416 x 55
##    MSW05_Order MSW05_Family MSW05_Genus MSW05_Species MSW05_Binomial
##    <chr>       <chr>        <chr>       <chr>         <chr>         
##  1 Artiodacty… Camelidae    Camelus     dromedarius   Camelus drome…
##  2 Carnivora   Canidae      Canis       adustus       Canis adustus 
##  3 Carnivora   Canidae      Canis       aureus        Canis aureus  
##  4 Carnivora   Canidae      Canis       latrans       Canis latrans 
##  5 Carnivora   Canidae      Canis       lupus         Canis lupus   
##  6 Artiodacty… Bovidae      Bos         frontalis     Bos frontalis 
##  7 Artiodacty… Bovidae      Bos         grunniens     Bos grunniens 
##  8 Artiodacty… Bovidae      Bos         javanicus     Bos javanicus 
##  9 Primates    Pitheciidae  Callicebus  cupreus       Callicebus cu…
## 10 Primates    Pitheciidae  Callicebus  discolor      Callicebus di…
## # … with 5,406 more rows, and 50 more variables: `1-1_ActivityCycle` <dbl>,
## #   `5-1_AdultBodyMass_g` <dbl>, `8-1_AdultForearmLen_mm` <dbl>,
## #   `13-1_AdultHeadBodyLen_mm` <dbl>, `2-1_AgeatEyeOpening_d` <dbl>,
## #   `3-1_AgeatFirstBirth_d` <dbl>, `18-1_BasalMetRate_mLO2hr` <dbl>,
## #   `5-2_BasalMetRateMass_g` <dbl>, `6-1_DietBreadth` <dbl>,
## #   `7-1_DispersalAge_d` <dbl>, `9-1_GestationLen_d` <dbl>,
## #   `12-1_HabitatBreadth` <dbl>, `22-1_HomeRange_km2` <dbl>,
## #   `22-2_HomeRange_Indiv_km2` <dbl>, `14-1_InterbirthInterval_d` <dbl>,
## #   `15-1_LitterSize` <dbl>, `16-1_LittersPerYear` <dbl>,
…
  na_if(-999)                                # Conversion des NA
```

---

# Print out

```r
dat                                          # dat %>% View()
```

```
## # A tibble: 5,416 x 8
##    order family adult_bodymass dispersal_age gestation homerange litter_size
##    <fct> <fct>           <dbl>         <dbl>     <dbl>     <dbl>       <dbl>
##  1 Arti… Camel…        492714.           NA      387.      NA              1
##  2 Carn… Canid…         10392.          330.      65        1.01          NA
##  3 Carn… Canid…          9659.           NA       61.2      3.13          NA
##  4 Carn… Canid…         11989.          255       61.7     19.9           NA
##  5 Carn… Canid…         31757.          180       63.5     43.1            2
##  6 Arti… Bovid…        800143.           NA      274.      NA              1
##  7 Arti… Bovid…        500000            NA      274.      NA              1
##  8 Arti… Bovid…        635974.           NA      297.      NA              1
##  9 Prim… Pithe…          1117.           NA      129.      NA             NA
## 10 Prim… Pithe…            NA            NA       NA       NA             NA
## # … with 5,406 more rows, and 1 more variable: longevity <dbl>
```
…
* How many observations in family? In order?

* What is the mean home range by family? Standard deviation? The sample size?

---

# Data exploration

```r
dat %>%
  count(order)
```

```
## # A tibble: 29 x 2
##    order               n
##    <fct>           <int>
##  1 Artiodactyla      240
##  2 Carnivora         286
##  3 Primates          376
##  4 Didelphimorphia    87
##  5 Cingulata          21
##  6 Rodentia         2277
##  7 Cetacea            84
##  8 Erinaceomorpha     24
##  9 Diprotodontia     143
## 10 Chiroptera       1116
## # … with 19 more rows
```

---

# Data exploration

```r
dat %>%
  count(family)
```

```
## # A tibble: 153 x 2
##    family            n
##    <fct>         <int>
##  1 Camelidae         4
##  2 Canidae          35
##  3 Bovidae         143
##  4 Pitheciidae      40
##  5 Didelphidae      87
##  6 Dasypodidae      21
##  7 Muridae         730
##  8 Spalacidae       36
##  9 Cricetidae      681
## 10 Neobalaenidae     1
## # … with 143 more rows
```
…
---

# Data exploration

```r
dat %>%
  filter(!is.na(homerange)) %>%
  group_by(family) %>%
  summarise(m = mean(homerange), sd = sd(homerange),n = n())
```

```
## # A tibble: 93 x 4
##    family               m        sd     n
##    <fct>            <dbl>     <dbl> <int>
##  1 Camelidae    0.13       NA           1
##  2 Canidae     49.6       176.         21
##  3 Bovidae     44.6       159.         24
##  4 Pitheciidae  0.8         1.27        7
##  5 Didelphidae  0.0704      0.160      10
##  6 Dasypodidae  1.38        2.14        4
##  7 Muridae      0.00336     0.00839    35
##  8 Spalacidae   0.0000732  NA           1
##  9 Cricetidae   0.00305     0.00572    62
## 10 Erinaceidae  0.0255      0.0306      4
## # … with 83 more rows
```
…
